Project 1: Exploratory Data Analysis over Malaria
…
## Rows: 78
## Columns: 4
## $ Code                                                          <chr> "BEN", …
## $ `Indicator:Households with at least one ITN for sleeping (%)` <dbl> 24.5565…
## $ Year                                                          <chr> "2006",…
## $ Entity                                                        <chr> "Benin"…

Incidence of Malaria per 100,000 Data set:

incidence

## # A tibble: 879 x 4
##    Entity  Code   Year `Malaria cases/100,000 pop. - wef_cm`
##    <chr>   <chr> <dbl>                                 <dbl>
##  1 Albania ALB    2006                                 0    
##  2 Albania ALB    2007                                 0    
##  3 Albania ALB    2008                                 0    
##  4 Albania ALB    2009                                 0    
##  5 Algeria DZA    2006                                 0.978
##  6 Algeria DZA    2007                                 0.978
##  7 Algeria DZA    2008                                 0.978
##  8 Algeria DZA    2009                                 0    
##  9 Algeria DZA    2010                                 0    
## 10 Algeria DZA    2011                                 0    
## # … with 869 more rows

incidence_untidy <- incidence %>% pivot_wider(names_from = "Code", 
    values_from = "Malaria cases/100,000 pop. - wef_cm")
incidence_untidy

## # A tibble: 879 x 146
##    Entity  Year   ALB    DZA   AGO   ARG   ARM   AUS   AUT   AZE   BHR   BGD
##    <chr>  <dbl> <dbl>  <dbl> <dbl> <dbl> <dbl> <dbl> <dbl> <dbl> <dbl> <dbl>
##  1 Alban…  2006     0 NA        NA    NA    NA    NA    NA    NA    NA    NA
##  2 Alban…  2007     0 NA        NA    NA    NA    NA    NA    NA    NA    NA
##  3 Alban…  2008     0 NA        NA    NA    NA    NA    NA    NA    NA    NA
##  4 Alban…  2009     0 NA        NA    NA    NA    NA    NA    NA    NA    NA
##  5 Alger…  2006    NA  0.978    NA    NA    NA    NA    NA    NA    NA    NA
##  6 Alger…  2007    NA  0.978    NA    NA    NA    NA    NA    NA    NA    NA
##  7 Alger…  2008    NA  0.978    NA    NA    NA    NA    NA    NA    NA    NA
##  8 Alger…  2009    NA  0        NA    NA    NA    NA    NA    NA    NA    NA
##  9 Alger…  2010    NA  0        NA    NA    NA    NA    NA    NA    NA    NA
## 10 Alger…  2011    NA  0        NA    NA    NA    NA    NA    NA    NA    NA
## # … with 869 more rows, and 134 more variables: BRB <dbl>, BEL <dbl>,
## #   BEN <dbl>, BTN <dbl>, BOL <dbl>, BIH <dbl>, BWA <dbl>, BRA <dbl>,
## #   BRN <dbl>, BGR <dbl>, BFA <dbl>, BDI <dbl>, KHM <dbl>, CMR <dbl>,
## #   CAN <dbl>, CPV <dbl>, TCD <dbl>, CHL <dbl>, CHN <dbl>, COL <dbl>,
## #   CRI <dbl>, CIV <dbl>, HRV <dbl>, CYP <dbl>, CZE <dbl>, DNK <dbl>,
## #   DOM <dbl>, ECU <dbl>, EGY <dbl>, SLV <dbl>, EST <dbl>, SWZ <dbl>,
## #   ETH <dbl>, FIN <dbl>, FRA <dbl>, GAB <dbl>, GMB <dbl>, GEO <dbl>,
## #   DEU <dbl>, GHA <dbl>, GRC <dbl>, GTM <dbl>, GIN <dbl>, GUY <dbl>,
## #   HTI <dbl>, HND <dbl>, HUN <dbl>, ISL <dbl>, IND <dbl>, IDN <dbl>,
…
incidence_retidy <- incidence_untidy %>% pivot_longer(cols = 3:146, 
    names_to = "Code", values_to = "Malaria cases per 100,000") %>% 
    na.omit()
incidence_retidy

## # A tibble: 879 x 4
##    Entity   Year Code  `Malaria cases per 100,000`
##    <chr>   <dbl> <chr>                       <dbl>
##  1 Albania  2006 ALB                         0    
##  2 Albania  2007 ALB                         0    
##  3 Albania  2008 ALB                         0    
##  4 Albania  2009 ALB                         0    
##  5 Algeria  2006 DZA                         0.978
##  6 Algeria  2007 DZA                         0.978
##  7 Algeria  2008 DZA                         0.978
##  8 Algeria  2009 DZA                         0    
##  9 Algeria  2010 DZA                         0    
## 10 Algeria  2011 DZA                         0    
## # … with 869 more rows

Part 2 - Joining Data

Since the four datasets all have in common the Entity (country) and Code, I decided to use that as my commmon ID. I began with creating a dataset that shows the deaths and incidence of Malaria using full_join(). I began with this since I wanted to ensure that in any given year that there was reported for incidence of Malaria, there was also reported deaths from Malaria. Using na.omit(), I was able to omit any years for which the two data sets did not have in common or did not have both variables accounted for.

# tidying/merging datasets
death_incidence <- malaria_deaths %>% full_join(incidence) %>% 
    na.omit()
death_incidence

## # A tibble: 870 x 5
##    Entity  Code   Year Deaths `Malaria cases/100,000 pop. - wef_cm`
##    <chr>   <chr> <dbl>  <dbl>                                 <dbl>
##  1 Albania ALB    2006   0                                    0    
##  2 Albania ALB    2007   0                                    0    
##  3 Albania ALB    2008   0                                    0    
##  4 Albania ALB    2009   0                                    0    
##  5 Algeria DZA    2006   7.21                                 0.978
##  6 Algeria DZA    2007   7.30                                 0.978
##  7 Algeria DZA    2008   7.00                                 0.978
##  8 Algeria DZA    2009   6.81                                 0    
##  9 Algeria DZA    2010   6.30                                 0    
## 10 Algeria DZA    2011   6.12                                 0    
## # … with 860 more rows
…
I did the same process for the my full data set, and did not see much correlation between the amount of government expenditures and percentage of ITN and the rate of Malaria incidence/death.

malaria_data %>% arrange(-ITN)

## # A tibble: 31 x 6
##    Entity        Year Deaths `Malaria cases/100,00…   ITN `Government Expenditu…
##    <chr>        <dbl>  <dbl>                  <dbl> <dbl>                  <dbl>
##  1 Rwanda        2010  2243.                 34352.  82.0                   26.7
##  2 Benin         2011  9768.                 36976.  79.8                   22.0
##  3 Cote d'Ivoi…  2011 30031.                 37162.  67.3                   28.5
##  4 Tanzania      2010 18817.                 29245.  63.8                   28.4
##  5 Senegal       2010  4814.                 12063.  62.9                   28.1
##  6 Uganda        2011 28153.                 35543.  59.8                   21.7
##  7 Madagascar    2008  8820.                 11674.  57.0                   19.4
##  8 Burkina Faso  2010 38503.                 43366.  56.9                   25.4
##  9 Malawi        2010  8334.                 33363.  56.8                   40.3
## 10 Kenya         2008  8258.                   388.  55.7                   29.6
## # … with 21 more rows

malaria_data %>% arrange(`Government Expenditure`)

## # A tibble: 31 x 6
##    Entity       Year  Deaths `Malaria cases/100,0…    ITN `Government Expenditu…
##    <chr>       <dbl>   <dbl>                 <dbl>  <dbl>                  <dbl>
##  1 Madagascar   2008  8820.                11674.  57.0                     19.4
##  2 Benin        2006 11157.                12173.  24.6                     19.6
##  3 Uganda       2006 50080.                47843.  15.9                     20.4
##  4 Pakistan     2006  5280.                   81.5  0.755                   21.5
##  5 Uganda       2011 28153.                35543.  59.8                     21.7
##  6 Zimbabwe     2009   860.                20567.  27.8                     21.9
##  7 Benin        2011  9768.                36976.  79.8                     22.0
##  8 Cameroon     2011 23451.                28013.  36.4                     22.0
##  9 Tajikistan   2006    14.6                  87.5  2.00                    22.4
## 10 Burkina Fa…  2006 34345.                11894.  24.2                     25.2
## # … with 21 more rows

After trying to see if I could find any correlation between my variables, I decided to
determine the overall average number of deaths and incidence per 100,000 in each year included in my data set.

I grouped the malaria data set by year and summarized the average number of deaths and incidence. From this I saw that the greatest average of deaths due to Malaria were in 2007 and the greatest average of incidence per 100,000 was in 2011.

With my hypothesis in mind, I wanted to see which year was when the government spent the least amount of money and the most amount of money (2009,2010). As well as which years had the lowest and highest percentage of ITN (2006, 2011).

# one at a time
malaria_data %>% group_by(Entity, Year) %>% summarise(mean_death = mean(Deaths)) %>% 
    arrange(mean_death)

## # A tibble: 31 x 3
## # Groups:   Entity [24]
##    Entity      Year mean_death
##    <chr>      <dbl>      <dbl>
##  1 Eswatini    2010       5.96
##  2 Namibia     2006       9.37
##  3 Tajikistan  2006      14.6 
##  4 Mauritania  2007     343.  
##  5 Zimbabwe    2010     836.  
##  6 Zimbabwe    2009     860.  
##  7 Rwanda      2010    2243.  
##  8 Zambia      2007    4404.  
##  9 Senegal     2010    4814.  
## 10 Pakistan    2006    5280.  
## # … with 21 more rows

malaria_data %>% group_by(Entity, Year) %>% summarise(mean_incidence = mean(`Malaria cases/100,000`)) %>% 
    arrange(mean_incidence)

## # A tibble: 31 x 3
## # Groups:   Entity [24]
##    Entity        Year mean_incidence
##    <chr>        <dbl>          <dbl>
##  1 Eswatini      2010           17.5
##  2 Pakistan      2006           81.5
##  3 Tajikistan    2006           87.5
##  4 Kenya         2008          388. 
##  5 Nigeria       2008         2027. 
##  6 Nigeria       2007         2104. 
##  7 Mauritania    2007         5979. 
##  8 Mali          2006         6226. 
##  9 Madagascar    2008        11674. 
## 10 Burkina Faso  2006        11894. 
## # … with 21 more rows

malaria_data %>% group_by(Entity, Year) %>% summarise(mean_spent = mean(`Government Expenditure`)) %>% 
    arrange(mean_spent)

## # A tibble: 31 x 3
## # Groups:   Entity [24]
##    Entity        Year mean_spent
##    <chr>        <dbl>      <dbl>
##  1 Madagascar    2008       19.4
##  2 Benin         2006       19.6
##  3 Uganda        2006       20.4
##  4 Pakistan      2006       21.5
##  5 Uganda        2011       21.7
##  6 Zimbabwe      2009       21.9
##  7 Benin         2011       22.0
##  8 Cameroon      2011       22.0
##  9 Tajikistan    2006       22.4
## 10 Burkina Faso  2006       25.2
## # … with 21 more rows

malaria_data %>% group_by(Entity, Year) %>% summarise(mean_nets = mean(ITN)) %>% 
    arrange(mean_nets)

## # A tibble: 31 x 3
## # Groups:   Entity [24]
##    Entity        Year mean_nets
##    <chr>        <dbl>     <dbl>
##  1 Pakistan      2006     0.755
##  2 Tajikistan    2006     2.00 
##  3 Nigeria       2007     4.05 
##  4 Nigeria       2008     7.98 
##  5 Mauritania    2007     8.04 
##  6 Eswatini      2010     9.91 
##  7 Uganda        2006    15.9  
##  8 Namibia       2006    20.2  
##  9 Burkina Faso  2006    24.2  
## 10 Benin         2006    24.6  
## # … with 21 more rows

# all together
malaria_data %>% group_by(Entity, Year) %>% summarize_if(is.numeric, 
    list(mean = mean), na.rm = T)

## # A tibble: 31 x 6
## # Groups:   Entity [24]
##    Entity     Year Deaths_mean `Malaria cases/100… ITN_mean `Government Expendi…
##    <chr>     <dbl>       <dbl>               <dbl>    <dbl>                <dbl>
##  1 Benin      2006    11157.               12173.     24.6                  19.6
##  2 Benin      2011     9768.               36976.     79.8                  22.0
##  3 Burkina …  2006    34345.               11894.     24.2                  25.2
##  4 Burkina …  2010    38503.               43366.     56.9                  25.4
##  5 Burundi    2010     8493.               27785.     52.0                  41.5
##  6 Cameroon   2011    23451.               28013.     36.4                  22.0
##  7 Chad       2010    11262.               39920.     42.1                  31.2
##  8 Cote d'I…  2011    30031.               37162.     67.3                  28.5
##  9 Eswatini   2010        5.96                17.5     9.91                 37.1
## 10 Ghana      2008    31370.               16400.     41.7                  26.8
## # … with 21 more rows
…
I used the population data set from “Our World in Data” (https://ourworldindata.org/world-population-growth). I used left_join() to only include the populations that were observed in my full malaria data set. Then using mutate(), I was able to create a new column that determined the Mortality rate for each of my observations. I named this finding “all_malaria”.

I was also curious to see which country, during which year, had the largest Mortality rate so I used arrange() for the variable and discovered that Burkina Faso (one of the top six) had the largest Mortality rate, which was in 2006.

# using mutate()
global_pop <- read_csv("population.csv")

pop_malaria <- malaria_data %>% left_join(global_pop)

all_malaria <- pop_malaria %>% mutate(Mortality = (Deaths/`Total population`) * 
    100) %>% select(-Code)

all_malaria %>% arrange(-Mortality)

## # A tibble: 31 x 8
##    Entity  Year Deaths `Malaria cases/…   ITN `Government Exp… `Total populati…
##    <chr>  <dbl>  <dbl>            <dbl> <dbl>            <dbl>            <dbl>
##  1 Burki…  2006 3.43e4           11894. 24.2              25.2         13829000
##  2 Burki…  2010 3.85e4           43366. 56.9              25.4         15605000
##  3 Mali    2006 2.77e4            6226. 50.1              25.4         13203000
##  4 Uganda  2006 5.01e4           47843. 15.9              20.4         28571000
##  5 Niger…  2007 2.37e5            2104.  4.05             26.3        146340000
##  6 Niger…  2008 2.41e5            2027.  7.98             26.7        150270000
##  7 Cote …  2011 3.00e4           37162. 67.3              28.5         21029000
##  8 Benin   2006 1.12e4           12173. 24.6              19.6          8217000
##  9 Ghana   2008 3.14e4           16400. 41.7              26.8         23564000
## 10 Niger…  2011 2.06e5           39736. 40.8              30.6        162804992
## # … with 21 more rows, and 1 more variable: Mortality <dbl>
…
ml

## # A tibble: 31 x 5
##     Year   Deaths `Malaria cases/100,000`   ITN `Government Expenditure`
##    <dbl>    <dbl>                   <dbl> <dbl>                    <dbl>
##  1  2006 11157.                   12173.  24.6                      19.6
##  2  2011  9768.                   36976.  79.8                      22.0
##  3  2006 34345.                   11894.  24.2                      25.2
##  4  2010 38503.                   43366.  56.9                      25.4
##  5  2010  8493.                   27785.  52.0                      41.5
##  6  2011 23451.                   28013.  36.4                      22.0
##  7  2010 11262.                   39920.  42.1                      31.2
##  8  2011 30031.                   37162.  67.3                      28.5
##  9  2010     5.96                    17.5  9.91                     37.1
## 10  2008 31370.                   16400.  41.7                      26.8
## # … with 21 more rows
…
